-- Merging decision tree log ---
provider#android.support.v4.content.FileProvider
INJECTED from /Users/chatrine/Documents/AndroidProjects/AndroidLanjutan/app/src/main/AndroidManifest.xml:19:9-27:20
	android:grantUriPermissions
		ADDED from /Users/chatrine/Documents/AndroidProjects/AndroidLanjutan/app/src/main/AndroidManifest.xml:23:13-47
	android:authorities
		INJECTED from /Users/chatrine/Documents/AndroidProjects/AndroidLanjutan/app/src/main/AndroidManifest.xml
		ADDED from /Users/chatrine/Documents/AndroidProjects/AndroidLanjutan/app/src/main/AndroidManifest.xml:21:13-60
	android:exported
		ADDED from /Users/chatrine/Documents/AndroidProjects/AndroidLanjutan/app/src/main/AndroidManifest.xml:22:13-37
	android:name
		ADDED from /Users/chatrine/Documents/AndroidProjects/AndroidLanjutan/app/src/main/AndroidManifest.xml:20:13-67
manifest
ADDED from /Users/chatrine/Documents/AndroidProjects/AndroidLanjutan/app/src/main/AndroidManifest.xml:2:1-41:12
INJECTED from /Users/chatrine/Documents/AndroidProjects/AndroidLanjutan/app/src/main/AndroidManifest.xml:2:1-41:12
INJECTED from /Users/chatrine/Documents/AndroidProjects/AndroidLanjutan/app/src/main/AndroidManifest.xml:2:1-41:12
INJECTED from /Users/chatrine/Documents/AndroidProjects/AndroidLanjutan/app/src/main/AndroidManifest.xml:2:1-41:12
MERGED from [pub.devrel:easypermissions:1.2.0] /Users/chatrine/.gradle/caches/transforms-1/files-1.1/easypermissions-1.2.0.aar/7c644669d4ac5195d5f6c4ee10542448/AndroidManifest.xml:2:1-19:12
MERGED from [com.android.support:design:27.1.1] /Users/chatrine/.gradle/caches/transforms-1/files-1.1/design-27.1.1.aar/0a3adb8b4832a13c1019592f9ef84d71/AndroidManifest.xml:17:1-22:12
MERGED from [com.android.support:appcompat-v7:27.1.1] /Users/chatrine/.gradle/caches/transforms-1/files-1.1/appcompat-v7-27.1.1.aar/640a8dba1f49905c81a3f41d43725694/AndroidManifest.xml:17:1-22:12
MERGED from [com.android.support.constraint:constraint-layout:1.1.0] /Users/chatrine/.gradle/caches/transforms-1/files-1.1/constraint-layout-1.1.0.aar/876837cb1dfb4f0359d41944fc7562e4/AndroidManifest.xml:2:1-11:12
MERGED from [com.jakewharton:butterknife:8.8.1] /Users/chatrine/.gradle/caches/transforms-1/files-1.1/butterknife-8.8.1.aar/052fef73fef2173a4f15b8e325903fe0/AndroidManifest.xml:2:1-7:12
MERGED from [com.android.support:recyclerview-v7:27.1.1] /Users/chatrine/.gradle/caches/transforms-1/files-1.1/recyclerview-v7-27.1.1.aar/0135caa53b770441bec2f02d78e80c08/AndroidManifest.xml:17:1-22:12
MERGED from [com.android.support:transition:27.1.1] /Users/chatrine/.gradle/caches/transforms-1/files-1.1/transition-27.1.1.aar/d9b405bcc083c92d50978251bb0ddbda/AndroidManifest.xml:17:1-22:12
MERGED from [com.android.support:support-v4:27.1.1] /Users/chatrine/.gradle/caches/transforms-1/files-1.1/support-v4-27.1.1.aar/88e0d6e36e598b7a3a3543c451ba8c9d/AndroidManifest.xml:17:1-22:12
MERGED from [com.android.support:support-media-compat:27.1.1] /Users/chatrine/.gradle/caches/transforms-1/files-1.1/support-media-compat-27.1.1.aar/03545cbd59627bdd0ef2c89f764cd153/AndroidManifest.xml:17:1-22:12
MERGED from [com.android.support:animated-vector-drawable:27.1.1] /Users/chatrine/.gradle/caches/transforms-1/files-1.1/animated-vector-drawable-27.1.1.aar/a91488d549405ed8e409889070234439/AndroidManifest.xml:17:1-22:12
MERGED from [com.android.support:support-fragment:27.1.1] /Users/chatrine/.gradle/caches/transforms-1/files-1.1/support-fragment-27.1.1.aar/2d4a3c3cdb77c3d7f4dc68bb6ff5b4cb/AndroidManifest.xml:17:1-22:12
MERGED from [com.android.support:support-core-ui:27.1.1] /Users/chatrine/.gradle/caches/transforms-1/files-1.1/support-core-ui-27.1.1.aar/c033fd5a953c4c35ee180b6fcec04018/AndroidManifest.xml:17:1-22:12
MERGED from [com.android.support:support-core-utils:27.1.1] /Users/chatrine/.gradle/caches/transforms-1/files-1.1/support-core-utils-27.1.1.aar/3d843d187275629bc518bacb136827e3/AndroidManifest.xml:17:1-22:12
MERGED from [com.android.support:support-vector-drawable:27.1.1] /Users/chatrine/.gradle/caches/transforms-1/files-1.1/support-vector-drawable-27.1.1.aar/5d6195b468f96842d1f91784ffa7e1a7/AndroidManifest.xml:17:1-22:12
MERGED from [com.android.support:support-compat:27.1.1] /Users/chatrine/.gradle/caches/transforms-1/files-1.1/support-compat-27.1.1.aar/956d888ac36443f2378375fa5d4f58c2/AndroidManifest.xml:17:1-22:12
MERGED from [android.arch.lifecycle:runtime:1.1.0] /Users/chatrine/.gradle/caches/transforms-1/files-1.1/runtime-1.1.0.aar/747266451064abdae97ddd1df17db2c2/AndroidManifest.xml:17:1-22:12
MERGED from [android.arch.lifecycle:livedata-core:1.1.0] /Users/chatrine/.gradle/caches/transforms-1/files-1.1/livedata-core-1.1.0.aar/f5f679ff4ed89290086eba88a24fceb4/AndroidManifest.xml:17:1-22:12
MERGED from [android.arch.core:runtime:1.1.0] /Users/chatrine/.gradle/caches/transforms-1/files-1.1/runtime-1.1.0.aar/d09a8b07f417b42926c7bf478bc6ee39/AndroidManifest.xml:17:1-22:12
MERGED from [android.arch.lifecycle:viewmodel:1.1.0] /Users/chatrine/.gradle/caches/transforms-1/files-1.1/viewmodel-1.1.0.aar/e8c4f87bb87302f2dd4349d4893dcdeb/AndroidManifest.xml:17:1-22:12
INJECTED from /Users/chatrine/Documents/AndroidProjects/AndroidLanjutan/app/src/main/AndroidManifest.xml:2:1-41:12
INJECTED from /Users/chatrine/Documents/AndroidProjects/AndroidLanjutan/app/src/main/AndroidManifest.xml:2:1-41:12
INJECTED from /Users/chatrine/Documents/AndroidProjects/AndroidLanjutan/app/src/main/AndroidManifest.xml:2:1-41:12
	package
		ADDED from /Users/chatrine/Documents/AndroidProjects/AndroidLanjutan/app/src/main/AndroidManifest.xml:3:5-51
		INJECTED from /Users/chatrine/Documents/AndroidProjects/AndroidLanjutan/app/src/main/AndroidManifest.xml
		INJECTED from /Users/chatrine/Documents/AndroidProjects/AndroidLanjutan/app/src/main/AndroidManifest.xml
	android:versionName
		INJECTED from /Users/chatrine/Documents/AndroidProjects/AndroidLanjutan/app/src/main/AndroidManifest.xml
		ADDED from /Users/chatrine/Documents/AndroidProjects/AndroidLanjutan/app/src/main/AndroidManifest.xml:2:1-41:12
		INJECTED from /Users/chatrine/Documents/AndroidProjects/AndroidLanjutan/app/src/main/AndroidManifest.xml
	android:versionCode
		INJECTED from /Users/chatrine/Documents/AndroidProjects/AndroidLanjutan/app/src/main/AndroidManifest.xml
		ADDED from /Users/chatrine/Documents/AndroidProjects/AndroidLanjutan/app/src/main/AndroidManifest.xml:2:1-41:12
		INJECTED from /Users/chatrine/Documents/AndroidProjects/AndroidLanjutan/app/src/main/AndroidManifest.xml
	xmlns:android
		ADDED from /Users/chatrine/Documents/AndroidProjects/AndroidLanjutan/app/src/main/AndroidManifest.xml:2:11-69
uses-permission#android.permission.INTERNET
ADDED from /Users/chatrine/Documents/AndroidProjects/AndroidLanjutan/app/src/main/AndroidManifest.xml:4:5-66
	android:name
		ADDED from /Users/chatrine/Documents/AndroidProjects/AndroidLanjutan/app/src/main/AndroidManifest.xml:4:22-64
uses-permission#android.permission.CAMERA
ADDED from /Users/chatrine/Documents/AndroidProjects/AndroidLanjutan/app/src/main/AndroidManifest.xml:5:5-64
	android:name
		ADDED from /Users/chatrine/Documents/AndroidProjects/AndroidLanjutan/app/src/main/AndroidManifest.xml:5:22-62
uses-permission#android.permission.CALL_PHONE
ADDED from /Users/chatrine/Documents/AndroidProjects/AndroidLanjutan/app/src/main/AndroidManifest.xml:6:5-68
	android:name
		ADDED from /Users/chatrine/Documents/AndroidProjects/AndroidLanjutan/app/src/main/AndroidManifest.xml:6:22-66
uses-permission#android.permission.WRITE_EXTERNAL_STORAGE
ADDED from /Users/chatrine/Documents/AndroidProjects/AndroidLanjutan/app/src/main/AndroidManifest.xml:7:5-80
	android:name
		ADDED from /Users/chatrine/Documents/AndroidProjects/AndroidLanjutan/app/src/main/AndroidManifest.xml:7:22-78
uses-permission#android.permission.BLUETOOTH
ADDED from /Users/chatrine/Documents/AndroidProjects/AndroidLanjutan/app/src/main/AndroidManifest.xml:8:5-67
	android:name
		ADDED from /Users/chatrine/Documents/AndroidProjects/AndroidLanjutan/app/src/main/AndroidManifest.xml:8:22-65
uses-permission#android.permission.ACCESS_WIFI_STATE
ADDED from /Users/chatrine/Documents/AndroidProjects/AndroidLanjutan/app/src/main/AndroidManifest.xml:9:5-75
	android:name
		ADDED from /Users/chatrine/Documents/AndroidProjects/AndroidLanjutan/app/src/main/AndroidManifest.xml:9:22-73
uses-permission#android.permission.CHANGE_WIFI_STATE
ADDED from /Users/chatrine/Documents/AndroidProjects/AndroidLanjutan/app/src/main/AndroidManifest.xml:10:5-75
	android:name
		ADDED from /Users/chatrine/Documents/AndroidProjects/AndroidLanjutan/app/src/main/AndroidManifest.xml:10:22-73
uses-permission#android.permission.SEND_SMS
ADDED from /Users/chatrine/Documents/AndroidProjects/AndroidLanjutan/app/src/main/AndroidManifest.xml:11:5-66
	android:name
		ADDED from /Users/chatrine/Documents/AndroidProjects/AndroidLanjutan/app/src/main/AndroidManifest.xml:11:22-64
application
ADDED from /Users/chatrine/Documents/AndroidProjects/AndroidLanjutan/app/src/main/AndroidManifest.xml:12:5-39:19
MERGED from [pub.devrel:easypermissions:1.2.0] /Users/chatrine/.gradle/caches/transforms-1/files-1.1/easypermissions-1.2.0.aar/7c644669d4ac5195d5f6c4ee10542448/AndroidManifest.xml:11:5-17:19
MERGED from [pub.devrel:easypermissions:1.2.0] /Users/chatrine/.gradle/caches/transforms-1/files-1.1/easypermissions-1.2.0.aar/7c644669d4ac5195d5f6c4ee10542448/AndroidManifest.xml:11:5-17:19
MERGED from [com.android.support.constraint:constraint-layout:1.1.0] /Users/chatrine/.gradle/caches/transforms-1/files-1.1/constraint-layout-1.1.0.aar/876837cb1dfb4f0359d41944fc7562e4/AndroidManifest.xml:9:5-20
MERGED from [com.android.support.constraint:constraint-layout:1.1.0] /Users/chatrine/.gradle/caches/transforms-1/files-1.1/constraint-layout-1.1.0.aar/876837cb1dfb4f0359d41944fc7562e4/AndroidManifest.xml:9:5-20
	android:supportsRtl
		ADDED from /Users/chatrine/Documents/AndroidProjects/AndroidLanjutan/app/src/main/AndroidManifest.xml:17:9-35
	android:label
		ADDED from /Users/chatrine/Documents/AndroidProjects/AndroidLanjutan/app/src/main/AndroidManifest.xml:15:9-41
	android:roundIcon
		ADDED from /Users/chatrine/Documents/AndroidProjects/AndroidLanjutan/app/src/main/AndroidManifest.xml:16:9-54
	android:icon
		ADDED from /Users/chatrine/Documents/AndroidProjects/AndroidLanjutan/app/src/main/AndroidManifest.xml:14:9-43
	android:allowBackup
		ADDED from /Users/chatrine/Documents/AndroidProjects/AndroidLanjutan/app/src/main/AndroidManifest.xml:13:9-35
	android:theme
		ADDED from /Users/chatrine/Documents/AndroidProjects/AndroidLanjutan/app/src/main/AndroidManifest.xml:18:9-40
activity#com.example.chatrine.androidlanjutan.MainActivity
ADDED from /Users/chatrine/Documents/AndroidProjects/AndroidLanjutan/app/src/main/AndroidManifest.xml:28:9-34:20
	android:name
		ADDED from /Users/chatrine/Documents/AndroidProjects/AndroidLanjutan/app/src/main/AndroidManifest.xml:28:19-47
intent-filter#action:name:android.intent.action.MAIN+category:name:android.intent.category.LAUNCHER
ADDED from /Users/chatrine/Documents/AndroidProjects/AndroidLanjutan/app/src/main/AndroidManifest.xml:29:13-33:29
action#android.intent.action.MAIN
ADDED from /Users/chatrine/Documents/AndroidProjects/AndroidLanjutan/app/src/main/AndroidManifest.xml:30:17-69
	android:name
		ADDED from /Users/chatrine/Documents/AndroidProjects/AndroidLanjutan/app/src/main/AndroidManifest.xml:30:25-66
category#android.intent.category.LAUNCHER
ADDED from /Users/chatrine/Documents/AndroidProjects/AndroidLanjutan/app/src/main/AndroidManifest.xml:32:17-77
	android:name
		ADDED from /Users/chatrine/Documents/AndroidProjects/AndroidLanjutan/app/src/main/AndroidManifest.xml:32:27-74
activity#com.example.chatrine.androidlanjutan.activity.CameraActivity
ADDED from /Users/chatrine/Documents/AndroidProjects/AndroidLanjutan/app/src/main/AndroidManifest.xml:35:9-61
	android:name
		ADDED from /Users/chatrine/Documents/AndroidProjects/AndroidLanjutan/app/src/main/AndroidManifest.xml:35:19-58
activity#com.example.chatrine.androidlanjutan.activity.BluetoothActivity
ADDED from /Users/chatrine/Documents/AndroidProjects/AndroidLanjutan/app/src/main/AndroidManifest.xml:36:9-64
	android:name
		ADDED from /Users/chatrine/Documents/AndroidProjects/AndroidLanjutan/app/src/main/AndroidManifest.xml:36:19-61
activity#com.example.chatrine.androidlanjutan.activity.TeleponActivity
ADDED from /Users/chatrine/Documents/AndroidProjects/AndroidLanjutan/app/src/main/AndroidManifest.xml:37:9-62
	android:name
		ADDED from /Users/chatrine/Documents/AndroidProjects/AndroidLanjutan/app/src/main/AndroidManifest.xml:37:19-59
activity#com.example.chatrine.androidlanjutan.activity.WifiActivity
ADDED from /Users/chatrine/Documents/AndroidProjects/AndroidLanjutan/app/src/main/AndroidManifest.xml:38:9-68
	android:name
		ADDED from /Users/chatrine/Documents/AndroidProjects/AndroidLanjutan/app/src/main/AndroidManifest.xml:38:19-56
uses-sdk
INJECTED from /Users/chatrine/Documents/AndroidProjects/AndroidLanjutan/app/src/main/AndroidManifest.xml reason: use-sdk injection requested
INJECTED from /Users/chatrine/Documents/AndroidProjects/AndroidLanjutan/app/src/main/AndroidManifest.xml
INJECTED from /Users/chatrine/Documents/AndroidProjects/AndroidLanjutan/app/src/main/AndroidManifest.xml
MERGED from [pub.devrel:easypermissions:1.2.0] /Users/chatrine/.gradle/caches/transforms-1/files-1.1/easypermissions-1.2.0.aar/7c644669d4ac5195d5f6c4ee10542448/AndroidManifest.xml:7:5-9:41
MERGED from [pub.devrel:easypermissions:1.2.0] /Users/chatrine/.gradle/caches/transforms-1/files-1.1/easypermissions-1.2.0.aar/7c644669d4ac5195d5f6c4ee10542448/AndroidManifest.xml:7:5-9:41
MERGED from [com.android.support:design:27.1.1] /Users/chatrine/.gradle/caches/transforms-1/files-1.1/design-27.1.1.aar/0a3adb8b4832a13c1019592f9ef84d71/AndroidManifest.xml:20:5-44
MERGED from [com.android.support:design:27.1.1] /Users/chatrine/.gradle/caches/transforms-1/files-1.1/design-27.1.1.aar/0a3adb8b4832a13c1019592f9ef84d71/AndroidManifest.xml:20:5-44
MERGED from [com.android.support:appcompat-v7:27.1.1] /Users/chatrine/.gradle/caches/transforms-1/files-1.1/appcompat-v7-27.1.1.aar/640a8dba1f49905c81a3f41d43725694/AndroidManifest.xml:20:5-44
MERGED from [com.android.support:appcompat-v7:27.1.1] /Users/chatrine/.gradle/caches/transforms-1/files-1.1/appcompat-v7-27.1.1.aar/640a8dba1f49905c81a3f41d43725694/AndroidManifest.xml:20:5-44
MERGED from [com.android.support.constraint:constraint-layout:1.1.0] /Users/chatrine/.gradle/caches/transforms-1/files-1.1/constraint-layout-1.1.0.aar/876837cb1dfb4f0359d41944fc7562e4/AndroidManifest.xml:5:5-7:41
MERGED from [com.android.support.constraint:constraint-layout:1.1.0] /Users/chatrine/.gradle/caches/transforms-1/files-1.1/constraint-layout-1.1.0.aar/876837cb1dfb4f0359d41944fc7562e4/AndroidManifest.xml:5:5-7:41
MERGED from [com.jakewharton:butterknife:8.8.1] /Users/chatrine/.gradle/caches/transforms-1/files-1.1/butterknife-8.8.1.aar/052fef73fef2173a4f15b8e325903fe0/AndroidManifest.xml:5:5-43
MERGED from [com.jakewharton:butterknife:8.8.1] /Users/chatrine/.gradle/caches/transforms-1/files-1.1/butterknife-8.8.1.aar/052fef73fef2173a4f15b8e325903fe0/AndroidManifest.xml:5:5-43
MERGED from [com.android.support:recyclerview-v7:27.1.1] /Users/chatrine/.gradle/caches/transforms-1/files-1.1/recyclerview-v7-27.1.1.aar/0135caa53b770441bec2f02d78e80c08/AndroidManifest.xml:20:5-44
MERGED from [com.android.support:recyclerview-v7:27.1.1] /Users/chatrine/.gradle/caches/transforms-1/files-1.1/recyclerview-v7-27.1.1.aar/0135caa53b770441bec2f02d78e80c08/AndroidManifest.xml:20:5-44
MERGED from [com.android.support:transition:27.1.1] /Users/chatrine/.gradle/caches/transforms-1/files-1.1/transition-27.1.1.aar/d9b405bcc083c92d50978251bb0ddbda/AndroidManifest.xml:20:5-44
MERGED from [com.android.support:transition:27.1.1] /Users/chatrine/.gradle/caches/transforms-1/files-1.1/transition-27.1.1.aar/d9b405bcc083c92d50978251bb0ddbda/AndroidManifest.xml:20:5-44
MERGED from [com.android.support:support-v4:27.1.1] /Users/chatrine/.gradle/caches/transforms-1/files-1.1/support-v4-27.1.1.aar/88e0d6e36e598b7a3a3543c451ba8c9d/AndroidManifest.xml:20:5-44
MERGED from [com.android.support:support-v4:27.1.1] /Users/chatrine/.gradle/caches/transforms-1/files-1.1/support-v4-27.1.1.aar/88e0d6e36e598b7a3a3543c451ba8c9d/AndroidManifest.xml:20:5-44
MERGED from [com.android.support:support-media-compat:27.1.1] /Users/chatrine/.gradle/caches/transforms-1/files-1.1/support-media-compat-27.1.1.aar/03545cbd59627bdd0ef2c89f764cd153/AndroidManifest.xml:20:5-44
MERGED from [com.android.support:support-media-compat:27.1.1] /Users/chatrine/.gradle/caches/transforms-1/files-1.1/support-media-compat-27.1.1.aar/03545cbd59627bdd0ef2c89f764cd153/AndroidManifest.xml:20:5-44
MERGED from [com.android.support:animated-vector-drawable:27.1.1] /Users/chatrine/.gradle/caches/transforms-1/files-1.1/animated-vector-drawable-27.1.1.aar/a91488d549405ed8e409889070234439/AndroidManifest.xml:20:5-44
MERGED from [com.android.support:animated-vector-drawable:27.1.1] /Users/chatrine/.gradle/caches/transforms-1/files-1.1/animated-vector-drawable-27.1.1.aar/a91488d549405ed8e409889070234439/AndroidManifest.xml:20:5-44
MERGED from [com.android.support:support-fragment:27.1.1] /Users/chatrine/.gradle/caches/transforms-1/files-1.1/support-fragment-27.1.1.aar/2d4a3c3cdb77c3d7f4dc68bb6ff5b4cb/AndroidManifest.xml:20:5-44
MERGED from [com.android.support:support-fragment:27.1.1] /Users/chatrine/.gradle/caches/transforms-1/files-1.1/support-fragment-27.1.1.aar/2d4a3c3cdb77c3d7f4dc68bb6ff5b4cb/AndroidManifest.xml:20:5-44
MERGED from [com.android.support:support-core-ui:27.1.1] /Users/chatrine/.gradle/caches/transforms-1/files-1.1/support-core-ui-27.1.1.aar/c033fd5a953c4c35ee180b6fcec04018/AndroidManifest.xml:20:5-44
MERGED from [com.android.support:support-core-ui:27.1.1] /Users/chatrine/.gradle/caches/transforms-1/files-1.1/support-core-ui-27.1.1.aar/c033fd5a953c4c35ee180b6fcec04018/AndroidManifest.xml:20:5-44
MERGED from [com.android.support:support-core-utils:27.1.1] /Users/chatrine/.gradle/caches/transforms-1/files-1.1/support-core-utils-27.1.1.aar/3d843d187275629bc518bacb136827e3/AndroidManifest.xml:20:5-44
MERGED from [com.android.support:support-core-utils:27.1.1] /Users/chatrine/.gradle/caches/transforms-1/files-1.1/support-core-utils-27.1.1.aar/3d843d187275629bc518bacb136827e3/AndroidManifest.xml:20:5-44
MERGED from [com.android.support:support-vector-drawable:27.1.1] /Users/chatrine/.gradle/caches/transforms-1/files-1.1/support-vector-drawable-27.1.1.aar/5d6195b468f96842d1f91784ffa7e1a7/AndroidManifest.xml:20:5-44
MERGED from [com.android.support:support-vector-drawable:27.1.1] /Users/chatrine/.gradle/caches/transforms-1/files-1.1/support-vector-drawable-27.1.1.aar/5d6195b468f96842d1f91784ffa7e1a7/AndroidManifest.xml:20:5-44
MERGED from [com.android.support:support-compat:27.1.1] /Users/chatrine/.gradle/caches/transforms-1/files-1.1/support-compat-27.1.1.aar/956d888ac36443f2378375fa5d4f58c2/AndroidManifest.xml:20:5-44
MERGED from [com.android.support:support-compat:27.1.1] /Users/chatrine/.gradle/caches/transforms-1/files-1.1/support-compat-27.1.1.aar/956d888ac36443f2378375fa5d4f58c2/AndroidManifest.xml:20:5-44
MERGED from [android.arch.lifecycle:runtime:1.1.0] /Users/chatrine/.gradle/caches/transforms-1/files-1.1/runtime-1.1.0.aar/747266451064abdae97ddd1df17db2c2/AndroidManifest.xml:20:5-44
MERGED from [android.arch.lifecycle:runtime:1.1.0] /Users/chatrine/.gradle/caches/transforms-1/files-1.1/runtime-1.1.0.aar/747266451064abdae97ddd1df17db2c2/AndroidManifest.xml:20:5-44
MERGED from [android.arch.lifecycle:livedata-core:1.1.0] /Users/chatrine/.gradle/caches/transforms-1/files-1.1/livedata-core-1.1.0.aar/f5f679ff4ed89290086eba88a24fceb4/AndroidManifest.xml:20:5-44
MERGED from [android.arch.lifecycle:livedata-core:1.1.0] /Users/chatrine/.gradle/caches/transforms-1/files-1.1/livedata-core-1.1.0.aar/f5f679ff4ed89290086eba88a24fceb4/AndroidManifest.xml:20:5-44
MERGED from [android.arch.core:runtime:1.1.0] /Users/chatrine/.gradle/caches/transforms-1/files-1.1/runtime-1.1.0.aar/d09a8b07f417b42926c7bf478bc6ee39/AndroidManifest.xml:20:5-44
MERGED from [android.arch.core:runtime:1.1.0] /Users/chatrine/.gradle/caches/transforms-1/files-1.1/runtime-1.1.0.aar/d09a8b07f417b42926c7bf478bc6ee39/AndroidManifest.xml:20:5-44
MERGED from [android.arch.lifecycle:viewmodel:1.1.0] /Users/chatrine/.gradle/caches/transforms-1/files-1.1/viewmodel-1.1.0.aar/e8c4f87bb87302f2dd4349d4893dcdeb/AndroidManifest.xml:20:5-44
MERGED from [android.arch.lifecycle:viewmodel:1.1.0] /Users/chatrine/.gradle/caches/transforms-1/files-1.1/viewmodel-1.1.0.aar/e8c4f87bb87302f2dd4349d4893dcdeb/AndroidManifest.xml:20:5-44
INJECTED from /Users/chatrine/Documents/AndroidProjects/AndroidLanjutan/app/src/main/AndroidManifest.xml
INJECTED from /Users/chatrine/Documents/AndroidProjects/AndroidLanjutan/app/src/main/AndroidManifest.xml
	android:targetSdkVersion
		INJECTED from /Users/chatrine/Documents/AndroidProjects/AndroidLanjutan/app/src/main/AndroidManifest.xml
		ADDED from /Users/chatrine/Documents/AndroidProjects/AndroidLanjutan/app/src/main/AndroidManifest.xml
		INJECTED from /Users/chatrine/Documents/AndroidProjects/AndroidLanjutan/app/src/main/AndroidManifest.xml
	android:minSdkVersion
		INJECTED from /Users/chatrine/Documents/AndroidProjects/AndroidLanjutan/app/src/main/AndroidManifest.xml
		ADDED from /Users/chatrine/Documents/AndroidProjects/AndroidLanjutan/app/src/main/AndroidManifest.xml
		INJECTED from /Users/chatrine/Documents/AndroidProjects/AndroidLanjutan/app/src/main/AndroidManifest.xml
meta-data#android.support.FILE_PROVIDER_PATHS
ADDED from /Users/chatrine/Documents/AndroidProjects/AndroidLanjutan/app/src/main/AndroidManifest.xml:24:13-26:68
	android:resource
		ADDED from /Users/chatrine/Documents/AndroidProjects/AndroidLanjutan/app/src/main/AndroidManifest.xml:26:17-55
	android:name
		ADDED from /Users/chatrine/Documents/AndroidProjects/AndroidLanjutan/app/src/main/AndroidManifest.xml:25:17-67
activity#pub.devrel.easypermissions.AppSettingsDialogHolderActivity
ADDED from [pub.devrel:easypermissions:1.2.0] /Users/chatrine/.gradle/caches/transforms-1/files-1.1/easypermissions-1.2.0.aar/7c644669d4ac5195d5f6c4ee10542448/AndroidManifest.xml:12:9-16:66
	android:label
		ADDED from [pub.devrel:easypermissions:1.2.0] /Users/chatrine/.gradle/caches/transforms-1/files-1.1/easypermissions-1.2.0.aar/7c644669d4ac5195d5f6c4ee10542448/AndroidManifest.xml:15:13-29
	android:exported
		ADDED from [pub.devrel:easypermissions:1.2.0] /Users/chatrine/.gradle/caches/transforms-1/files-1.1/easypermissions-1.2.0.aar/7c644669d4ac5195d5f6c4ee10542448/AndroidManifest.xml:14:13-37
	android:theme
		ADDED from [pub.devrel:easypermissions:1.2.0] /Users/chatrine/.gradle/caches/transforms-1/files-1.1/easypermissions-1.2.0.aar/7c644669d4ac5195d5f6c4ee10542448/AndroidManifest.xml:16:13-63
	android:name
		ADDED from [pub.devrel:easypermissions:1.2.0] /Users/chatrine/.gradle/caches/transforms-1/files-1.1/easypermissions-1.2.0.aar/7c644669d4ac5195d5f6c4ee10542448/AndroidManifest.xml:13:13-86
